{
  "$schema": "https://docs.renovatebot.com/renovate-schema.json",
  "extends": ["config:base", ":automergeMinor"],
  "nix": {
    "enabled": true
  },
  "lockFileMaintenance": {
    "enabled": true
  }
}
